{
    "labels": ["Day 1", "Day 2", "Day 3"],
    "datasets": [
        {
            "label": "Messages Sent",
            "data": [65, 59, 80],
            "backgroundColor": "rgba(255,99,132,0.2)",
            "borderColor": "rgba(255,99,132,1)",
            "borderWidth": 1,
            "hoverBackgroundColor": "rgba(255,99,132,0.4)",
            "hoverBorderColor": "rgba(255,99,132,1)"
        },
        {
            "label": "Amount Received",
            "data": [15, 59, 1],
            "backgroundColor": "rgba(0,99,132,0.2)",
            "borderColor": "rgba(0,99,132,1)",
            "borderWidth": 1,
            "hoverBackgroundColor": "rgba(0,99,132,0.4)",
            "hoverBorderColor": "rgba(0,99,132,1)"
        },
        {
            "label": "Amount Failed",
            "data": [5, 9, 89],
            "backgroundColor": "rgba(100,240,132,0.2)",
            "borderColor": "rgba(100,240,132,1)",
            "borderWidth": 1,
            "hoverBackgroundColor": "rgba(100,240,132,0.4)",
            "hoverBorderColor": "rgba(100,240,132,1)"
        }
    ]
}